LID,BPID,FPID,BLID,FLID
1,43,44,0,2
2,44,45,1,3
3,45,46,2,4
4,46,47,3,5
5,47,48,4,6
6,48,49,5,7
7,49,50,6,8
8,50,51,7,9
9,51,52,8,10
10,52,53,9,11
11,53,54,10,12
12,54,55,11,13
13,55,56,12,14
14,56,57,13,15
15,57,58,14,16
16,58,59,15,17
17,59,60,16,18
18,60,61,17,19
19,61,62,18,20
20,62,63,19,21
21,63,64,20,22
22,64,65,21,23
23,65,66,22,24
24,66,67,23,25
25,67,68,24,0
26,69,70,0,27
27,70,71,26,28
28,71,72,27,29
29,72,73,28,30
30,73,74,29,31
31,74,75,30,32
32,75,76,31,33
33,76,77,32,34
34,77,78,33,35
35,78,79,34,36
36,79,80,35,37
37,80,81,36,38
38,81,82,37,39
39,82,83,38,40
40,83,84,39,41
41,84,85,40,42
42,85,86,41,43
43,86,87,42,44
44,87,88,43,45
45,88,89,44,46
46,89,90,45,47
47,90,91,46,48
48,91,92,47,49
49,92,93,48,50
50,93,94,49,0
