PID,B,L,H,Bx,Ly,ReF,MCODE1,MCODE2,MCODE3
1,0,0,-0.14,-22.63,-5.66,0,0,0,0
2,0,0,-0.18,-22.86,-7.83,0,0,0,0
3,0,0,-0.23,-22.75,-9.80,0,0,0,0
4,0,0,-0.26,-22.33,-11.57,0,0,0,0
5,0,0,-0.27,-21.63,-13.14,0,0,0,0
6,0,0,-0.26,-20.69,-14.49,0,0,0,0
7,0,0,-0.19,-19.55,-15.63,0,0,0,0
8,0,0,-0.20,-18.23,-16.55,0,0,0,0
9,0,0,-0.26,-16.79,-17.25,0,0,0,0
10,0,0,-0.27,-15.24,-17.71,0,0,0,0
11,0,0,-0.33,-13.63,-17.95,0,0,0,0
12,0,0,-0.32,-12.00,-17.94,0,0,0,0
13,0,0,-0.22,-10.37,-17.70,0,0,0,0
14,0,0,-0.19,-8.78,-17.20,0,0,0,0
15,0,0,-0.13,-7.28,-16.46,0,0,0,0
16,0,0,-0.04,-5.89,-15.46,0,0,0,0
17,0,0,-0.03,-4.65,-14.20,0,0,0,0
18,0,0,-0.07,-3.59,-12.67,0,0,0,0
19,0,0,-0.17,-2.76,-10.87,0,0,0,0
20,0,0,-0.06,-2.18,-8.80,0,0,0,0
21,0,0,-0.04,-1.90,-6.45,0,0,0,0
22,0,0,-0.04,-1.90,-6.45,0,0,0,0
23,0,0,0.02,-1.91,-4.84,0,0,0,0
24,0,0,0.01,-2.15,-3.38,0,0,0,0
25,0,0,0.02,-2.59,-2.06,0,0,0,0
26,0,0,0.02,-3.21,-0.89,0,0,0,0
27,0,0,0.04,-4.00,0.12,0,0,0,0
28,0,0,0.10,-4.93,0.97,0,0,0,0
29,0,0,0.09,-5.99,1.66,0,0,0,0
30,0,0,0.07,-7.16,2.18,0,0,0,0
31,0,0,0.05,-8.41,2.53,0,0,0,0
32,0,0,0.04,-9.73,2.72,0,0,0,0
33,0,0,0.04,-11.11,2.72,0,0,0,0
34,0,0,0.02,-12.51,2.55,0,0,0,0
35,0,0,0.02,-13.93,2.20,0,0,0,0
36,0,0,0.00,-15.34,1.66,0,0,0,0
37,0,0,-0.02,-16.73,0.93,0,0,0,0
38,0,0,-0.04,-18.07,0.01,0,0,0,0
39,0,0,-0.08,-19.35,-1.11,0,0,0,0
40,0,0,-0.09,-20.55,-2.42,0,0,0,0
41,0,0,-0.09,-21.65,-3.94,0,0,0,0
42,0,0,-0.14,-22.63,-5.66,0,0,0,0
43,0,0,-0.03,3.93,-10.54,0,0,0,0
44,0,0,-0.06,4.23,-8.44,0,0,0,0
45,0,0,-0.02,4.35,-6.44,0,0,0,0
46,0,0,0.04,4.31,-4.56,0,0,0,0
47,0,0,0.06,4.11,-2.79,0,0,0,0
48,0,0,0.08,3.76,-1.13,0,0,0,0
49,0,0,0.10,3.27,0.42,0,0,0,0
50,0,0,0.10,2.65,1.84,0,0,0,0
51,0,0,0.11,1.92,3.15,0,0,0,0
52,0,0,0.11,1.08,4.33,0,0,0,0
53,0,0,0.10,0.14,5.40,0,0,0,0
54,0,0,0.12,-0.89,6.33,0,0,0,0
55,0,0,0.11,-2.00,7.14,0,0,0,0
56,0,0,0.10,-3.18,7.82,0,0,0,0
57,0,0,0.08,-4.41,8.37,0,0,0,0
58,0,0,0.09,-5.70,8.78,0,0,0,0
59,0,0,0.09,-7.03,9.06,0,0,0,0
60,0,0,0.09,-8.39,9.20,0,0,0,0
61,0,0,0.12,-9.76,9.20,0,0,0,0
62,0,0,0.14,-11.15,9.05,0,0,0,0
63,0,0,0.11,-12.54,8.77,0,0,0,0
64,0,0,0.10,-13.92,8.34,0,0,0,0
65,0,0,0.09,-15.28,7.75,0,0,0,0
66,0,0,0.08,-16.62,7.02,0,0,0,0
67,0,0,0.06,-17.91,6.14,0,0,0,0
68,0,0,0.20,-19.16,5.10,0,0,0,0
69,0,0,0.02,-20.35,3.91,0,0,0,0
70,0,0,-0.02,-21.47,2.56,0,0,0,0
71,0,0,-0.10,-22.51,1.04,0,0,0,0
72,0,0,-0.10,-23.47,-0.63,0,0,0,0
73,0,0,-0.10,-23.47,-0.63,0,0,0,0
74,0,0,-0.11,-24.89,-2.14,0,0,0,0
75,0,0,-0.14,-25.96,-3.69,0,0,0,0
76,0,0,-0.14,-26.71,-5.26,0,0,0,0
77,0,0,-0.21,-27.16,-6.84,0,0,0,0
78,0,0,-0.23,-27.32,-8.42,0,0,0,0
79,0,0,-0.20,-27.22,-9.97,0,0,0,0
80,0,0,-0.16,-26.87,-11.50,0,0,0,0
81,0,0,-0.12,-26.29,-12.98,0,0,0,0
82,0,0,-0.13,-25.51,-14.41,0,0,0,0
83,0,0,-0.14,-24.54,-15.77,0,0,0,0
84,0,0,-0.14,-23.40,-17.04,0,0,0,0
85,0,0,-0.13,-22.11,-18.21,0,0,0,0
86,0,0,-0.14,-20.69,-19.28,0,0,0,0
87,0,0,-0.12,-19.16,-20.22,0,0,0,0
88,0,0,-0.11,-17.54,-21.03,0,0,0,0
89,0,0,-0.11,-15.84,-21.68,0,0,0,0
90,0,0,-0.09,-14.10,-22.18,0,0,0,0
91,0,0,-0.09,-12.32,-22.49,0,0,0,0
92,0,0,-0.06,-10.52,-22.62,0,0,0,0
93,0,0,-0.04,-8.74,-22.54,0,0,0,0
94,0,0,-0.02,-6.97,-22.25,0,0,0,0
95,0,0,0.01,-5.25,-21.73,0,0,0,0
96,0,0,0.01,-3.60,-20.96,0,0,0,0
97,0,0,-0.17,-2.02,-19.94,0,0,0,0
98,0,0,-0.25,-0.55,-18.65,0,0,0,0
99,0,0,-0.18,0.80,-17.08,0,0,0,0
100,0,0,-0.06,2.01,-15.21,0,0,0,0
101,0,0,0.00,3.06,-13.03,0,0,0,0
102,0,0,-0.03,3.93,-10.54,0,0,0,0
103,0,0,-0.15,-17.77,-6.94,0,0,0,0
104,0,0,-0.14,-17.17,-5.72,0,0,0,0
105,0,0,-0.08,-16.33,-4.57,0,0,0,0
106,0,0,-0.03,-15.28,-3.60,0,0,0,0
107,0,0,-0.02,-14.09,-2.92,0,0,0,0
108,0,0,-0.01,-12.82,-2.65,0,0,0,0
109,0,0,0.01,-11.51,-2.91,0,0,0,0
110,0,0,-0.01,-10.22,-3.80,0,0,0,0
111,0,0,-0.05,-9.00,-5.46,0,0,0,0
112,0,0,0.00,-7.92,-7.98,0,0,0,0
113,0,0,-0.15,-17.77,-6.94,0,0,0,0
114,0,0,-0.06,-17.79,-8.39,0,0,0,0
115,0,0,-0.05,-17.07,-9.84,0,0,0,0
116,0,0,0.00,-15.82,-11.14,0,0,0,0
117,0,0,-0.01,-14.22,-12.16,0,0,0,0
118,0,0,-0.01,-12.47,-12.75,0,0,0,0
119,0,0,-0.01,-10.78,-12.77,0,0,0,0
120,0,0,-0.01,-9.32,-12.07,0,0,0,0
121,0,0,-0.12,-8.31,-10.52,0,0,0,0
122,0,0,0.00,-7.92,-7.98,0,0,0,0
