PID,B,L,H,Bx,Ly,ReF,MCODE1,MCODE2,MCODE3
1,0,0,1.45,-9.30,-15.01,0,0,0,0
2,0,0,1.20,-8.93,-15.43,0,0,0,0
3,0,0,1.24,-8.53,-15.89,0,0,0,0
4,0,0,1.09,-8.11,-16.37,0,0,0,0
5,0,0,1.11,-7.66,-16.88,0,0,0,0
6,0,0,1.40,-7.19,-17.42,0,0,0,0
7,0,0,1.37,-6.70,-17.98,0,0,0,0
8,0,0,1.33,-6.18,-18.56,0,0,0,0
9,0,0,1.12,-5.65,-19.16,0,0,0,0
10,0,0,0.82,-5.09,-19.78,0,0,0,0
11,0,0,0.61,-4.51,-20.43,0,0,0,0
12,0,0,1.27,-3.91,-21.09,0,0,0,0
13,0,0,0.80,-3.30,-21.77,0,0,0,0
14,0,0,1.11,-2.66,-22.47,0,0,0,0
15,0,0,0.93,-2.01,-23.18,0,0,0,0
16,0,0,1.34,-1.34,-23.91,0,0,0,0
17,0,0,1.48,-0.66,-24.65,0,0,0,0
18,0,0,1.08,0.05,-25.40,0,0,0,0
19,0,0,1.29,0.76,-26.17,0,0,0,0
20,0,0,1.47,1.49,-26.94,0,0,0,0
21,0,0,1.52,2.23,-27.72,0,0,0,0
22,0,0,1.17,2.99,-28.51,0,0,0,0
23,0,0,1.17,3.75,-29.31,0,0,0,0
24,0,0,1.50,4.53,-30.12,0,0,0,0
25,0,0,1.52,5.32,-30.93,0,0,0,0
26,0,0,1.55,6.12,-31.74,0,0,0,0
27,0,0,1.60,6.93,-32.55,0,0,0,0
28,0,0,1.59,7.75,-33.37,0,0,0,0
29,0,0,1.63,8.57,-34.19,0,0,0,0
30,0,0,1.61,9.40,-35.00,0,0,0,0
31,0,0,1.62,10.24,-35.82,0,0,0,0
32,0,0,1.65,11.08,-36.63,0,0,0,0
33,0,0,1.69,11.93,-37.44,0,0,0,0
34,0,0,1.70,12.79,-38.24,0,0,0,0
35,0,0,1.41,13.64,-39.04,0,0,0,0
36,0,0,1.45,14.50,-39.83,0,0,0,0
37,0,0,1.41,15.37,-40.61,0,0,0,0
38,0,0,1.42,16.23,-41.39,0,0,0,0
39,0,0,1.72,17.10,-42.15,0,0,0,0
40,0,0,1.58,17.96,-42.90,0,0,0,0
41,0,0,1.60,18.83,-43.64,0,0,0,0
42,0,0,1.71,19.69,-44.37,0,0,0,0
43,0,0,1.62,20.55,-45.08,0,0,0,0
44,0,0,1.64,21.41,-45.78,0,0,0,0
45,0,0,1.61,22.27,-46.46,0,0,0,0
46,0,0,1.48,23.12,-47.12,0,0,0,0
47,0,0,1.56,23.97,-47.76,0,0,0,0
48,0,0,1.60,24.81,-48.39,0,0,0,0
49,0,0,1.60,25.65,-48.99,0,0,0,0
50,0,0,1.79,26.48,-49.57,0,0,0,0
51,0,0,0.71,27.30,-50.13,0,0,0,0
52,0,0,1.59,28.12,-50.66,0,0,0,0
53,0,0,1.52,28.92,-51.17,0,0,0,0
54,0,0,1.56,29.72,-51.65,0,0,0,0
55,0,0,1.60,30.51,-52.10,0,0,0,0
56,0,0,0.38,-20.07,1.45,0,0,0,0
57,0,0,0.49,-19.38,0.27,0,0,0,0
58,0,0,0.66,-18.71,-0.87,0,0,0,0
59,0,0,1.00,-18.04,-1.96,0,0,0,0
60,0,0,0.85,-17.39,-3.01,0,0,0,0
61,0,0,1.18,-16.75,-4.02,0,0,0,0
62,0,0,0.80,-16.12,-4.99,0,0,0,0
63,0,0,1.24,-15.50,-5.92,0,0,0,0
64,0,0,1.30,-14.90,-6.82,0,0,0,0
65,0,0,1.37,-14.31,-7.69,0,0,0,0
66,0,0,1.36,-13.74,-8.52,0,0,0,0
67,0,0,1.30,-13.18,-9.33,0,0,0,0
68,0,0,1.23,-12.63,-10.11,0,0,0,0
69,0,0,0.60,-12.10,-10.87,0,0,0,0
70,0,0,0.05,-11.59,-11.60,0,0,0,0
71,0,0,0.15,-11.09,-12.32,0,0,0,0
72,0,0,0.76,-10.62,-13.01,0,0,0,0
73,0,0,0.81,-10.16,-13.69,0,0,0,0
74,0,0,0.50,-9.72,-14.35,0,0,0,0
75,0,0,1.45,-9.30,-15.01,0,0,0,0
76,0,0,1.60,30.51,-52.10,0,0,0,0
77,0,0,1.43,31.69,-52.74,0,0,0,0
78,0,0,1.89,32.89,-53.28,0,0,0,0
79,0,0,1.44,34.11,-53.73,0,0,0,0
80,0,0,1.31,35.34,-54.08,0,0,0,0
81,0,0,1.52,36.58,-54.35,0,0,0,0
82,0,0,0.75,37.83,-54.53,0,0,0,0
83,0,0,0.48,39.07,-54.62,0,0,0,0
84,0,0,0.79,40.30,-54.63,0,0,0,0
85,0,0,0.89,41.53,-54.56,0,0,0,0
86,0,0,0.92,42.74,-54.41,0,0,0,0
87,0,0,0.87,43.94,-54.19,0,0,0,0
88,0,0,1.38,45.11,-53.88,0,0,0,0
89,0,0,1.32,46.26,-53.51,0,0,0,0
90,0,0,1.28,47.37,-53.06,0,0,0,0
91,0,0,1.50,48.45,-52.55,0,0,0,0
92,0,0,1.68,49.50,-51.97,0,0,0,0
93,0,0,1.78,50.49,-51.32,0,0,0,0
94,0,0,1.86,51.45,-50.61,0,0,0,0
95,0,0,1.89,52.35,-49.84,0,0,0,0
96,0,0,1.87,53.19,-49.01,0,0,0,0
97,0,0,1.82,53.97,-48.12,0,0,0,0
98,0,0,1.78,54.69,-47.18,0,0,0,0
99,0,0,1.73,55.34,-46.18,0,0,0,0
100,0,0,1.67,55.92,-45.14,0,0,0,0
101,0,0,1.59,56.42,-44.04,0,0,0,0
102,0,0,1.53,56.84,-42.90,0,0,0,0
103,0,0,1.55,57.17,-41.72,0,0,0,0
104,0,0,1.52,57.41,-40.49,0,0,0,0
105,0,0,1.38,57.56,-39.22,0,0,0,0
106,0,0,2.57,57.61,-37.91,0,0,0,0
107,0,0,3.43,82.70,73.32,0,0,0,0
108,0,0,4.37,83.28,73.07,0,0,0,0
109,0,0,4.37,83.86,72.82,0,0,0,0
110,0,0,4.36,84.45,72.57,0,0,0,0
111,0,0,4.42,85.05,72.32,0,0,0,0
112,0,0,4.52,85.66,72.06,0,0,0,0
113,0,0,4.59,86.28,71.79,0,0,0,0
114,0,0,4.63,86.90,71.53,0,0,0,0
115,0,0,4.67,87.53,71.26,0,0,0,0
116,0,0,4.71,88.18,70.99,0,0,0,0
117,0,0,4.73,88.82,70.71,0,0,0,0
118,0,0,4.80,89.48,70.43,0,0,0,0
119,0,0,4.80,90.15,70.15,0,0,0,0
120,0,0,4.87,90.82,69.87,0,0,0,0
121,0,0,4.96,91.50,69.58,0,0,0,0
122,0,0,5.00,92.19,69.29,0,0,0,0
123,0,0,5.05,92.89,68.99,0,0,0,0
124,0,0,5.14,93.59,68.70,0,0,0,0
125,0,0,5.16,94.30,68.40,0,0,0,0
126,0,0,5.26,95.02,68.09,0,0,0,0
127,0,0,5.35,95.75,67.79,0,0,0,0
128,0,0,5.38,96.48,67.48,0,0,0,0
129,0,0,5.45,97.22,67.17,0,0,0,0
130,0,0,5.54,97.97,66.85,0,0,0,0
131,0,0,5.50,98.73,66.53,0,0,0,0
132,0,0,5.57,99.49,66.21,0,0,0,0
133,0,0,5.66,100.26,65.89,0,0,0,0
134,0,0,5.70,101.03,65.56,0,0,0,0
135,0,0,5.70,101.81,65.23,0,0,0,0
136,0,0,5.80,102.60,64.90,0,0,0,0
137,0,0,5.88,103.40,64.57,0,0,0,0
138,0,0,5.91,104.20,64.23,0,0,0,0
139,0,0,5.96,105.00,63.89,0,0,0,0
140,0,0,6.01,105.82,63.55,0,0,0,0
141,0,0,6.68,106.64,63.20,0,0,0,0
142,0,0,8.77,107.47,62.86,0,0,0,0
143,0,0,10.55,108.30,62.51,0,0,0,0
144,0,0,10.23,109.14,62.15,0,0,0,0
145,0,0,8.78,109.98,61.80,0,0,0,0
146,0,0,6.48,110.83,61.44,0,0,0,0
147,0,0,6.50,111.69,61.08,0,0,0,0
148,0,0,6.57,112.55,60.71,0,0,0,0
149,0,0,8.17,113.41,60.35,0,0,0,0
150,0,0,6.70,114.29,59.98,0,0,0,0
151,0,0,6.77,115.16,59.61,0,0,0,0
152,0,0,6.83,116.05,59.24,0,0,0,0
153,0,0,6.92,116.94,58.86,0,0,0,0
154,0,0,10.81,117.83,58.48,0,0,0,0
155,0,0,9.27,118.73,58.10,0,0,0,0
156,0,0,7.28,119.63,57.72,0,0,0,0
157,0,0,9.87,120.54,57.34,0,0,0,0
158,0,0,8.85,121.45,56.95,0,0,0,0
159,0,0,9.69,122.37,56.56,0,0,0,0
160,0,0,7.40,123.29,56.17,0,0,0,0
161,0,0,7.45,124.22,55.78,0,0,0,0
162,0,0,7.51,125.15,55.38,0,0,0,0
163,0,0,11.31,126.09,54.98,0,0,0,0
164,0,0,9.46,127.03,54.58,0,0,0,0
165,0,0,8.30,127.97,54.18,0,0,0,0
166,0,0,8.15,128.92,53.78,0,0,0,0
167,0,0,8.21,129.88,53.37,0,0,0,0
168,0,0,8.24,130.83,52.96,0,0,0,0
169,0,0,8.32,131.80,52.55,0,0,0,0
170,0,0,8.48,132.76,52.14,0,0,0,0
171,0,0,8.47,133.73,51.72,0,0,0,0
172,0,0,8.40,134.70,51.31,0,0,0,0
173,0,0,8.51,135.68,50.89,0,0,0,0
174,0,0,8.75,136.66,50.47,0,0,0,0
175,0,0,8.71,137.64,50.05,0,0,0,0
176,0,0,8.91,138.63,49.62,0,0,0,0
177,0,0,8.97,139.62,49.20,0,0,0,0
178,0,0,8.91,140.61,48.77,0,0,0,0
179,0,0,8.96,141.61,48.34,0,0,0,0
180,0,0,9.07,142.61,47.91,0,0,0,0
181,0,0,9.10,143.61,47.48,0,0,0,0
182,0,0,9.20,144.62,47.04,0,0,0,0
183,0,0,9.35,145.62,46.61,0,0,0,0
184,0,0,9.36,146.64,46.17,0,0,0,0
185,0,0,9.48,147.65,45.73,0,0,0,0
186,0,0,9.57,148.67,45.29,0,0,0,0
187,0,0,9.59,149.69,44.84,0,0,0,0
188,0,0,9.64,150.71,44.40,0,0,0,0
189,0,0,15.83,151.73,43.95,0,0,0,0
190,0,0,9.85,152.76,43.50,0,0,0,0
191,0,0,12.70,153.78,43.05,0,0,0,0
192,0,0,16.72,154.82,42.60,0,0,0,0
193,0,0,16.24,155.85,42.15,0,0,0,0
194,0,0,10.32,156.88,41.70,0,0,0,0
195,0,0,10.34,157.92,41.24,0,0,0,0
196,0,0,10.57,158.96,40.78,0,0,0,0
197,0,0,10.67,160.00,40.33,0,0,0,0
198,0,0,13.63,161.04,39.87,0,0,0,0
199,0,0,10.88,162.08,39.41,0,0,0,0
200,0,0,10.99,163.13,38.94,0,0,0,0
201,0,0,11.01,164.17,38.48,0,0,0,0
202,0,0,11.20,165.22,38.02,0,0,0,0
203,0,0,11.28,166.27,37.55,0,0,0,0
204,0,0,16.82,167.32,37.08,0,0,0,0
205,0,0,16.32,168.37,36.61,0,0,0,0
206,0,0,17.73,169.42,36.14,0,0,0,0
207,0,0,17.44,170.47,35.67,0,0,0,0
208,0,0,17.84,171.53,35.20,0,0,0,0
209,0,0,19.33,172.58,34.73,0,0,0,0
210,0,0,11.99,173.64,34.25,0,0,0,0
211,0,0,12.02,174.69,33.78,0,0,0,0
212,0,0,12.12,175.75,33.30,0,0,0,0
213,0,0,12.27,176.81,32.82,0,0,0,0
214,0,0,12.31,177.86,32.34,0,0,0,0
215,0,0,12.38,178.92,31.86,0,0,0,0
216,0,0,12.61,179.98,31.38,0,0,0,0
217,0,0,12.72,181.04,30.90,0,0,0,0
218,0,0,12.71,182.10,30.42,0,0,0,0
219,0,0,12.81,183.15,29.94,0,0,0,0
220,0,0,12.93,184.21,29.45,0,0,0,0
221,0,0,13.04,185.27,28.97,0,0,0,0
222,0,0,13.00,186.33,28.48,0,0,0,0
223,0,0,13.09,187.38,27.99,0,0,0,0
224,0,0,13.32,188.44,27.51,0,0,0,0
225,0,0,13.39,189.50,27.02,0,0,0,0
226,0,0,13.51,190.55,26.53,0,0,0,0
227,0,0,13.61,191.61,26.04,0,0,0,0
228,0,0,13.65,192.66,25.55,0,0,0,0
229,0,0,13.84,193.72,25.06,0,0,0,0
230,0,0,13.77,194.77,24.56,0,0,0,0
231,0,0,13.88,195.82,24.07,0,0,0,0
232,0,0,13.99,196.87,23.58,0,0,0,0
233,0,0,14.26,197.92,23.08,0,0,0,0
234,0,0,14.35,198.97,22.59,0,0,0,0
235,0,0,14.40,200.02,22.09,0,0,0,0
236,0,0,14.49,201.06,21.60,0,0,0,0
237,0,0,12.92,188.85,19.07,0,0,0,0
238,0,0,12.94,188.67,19.53,0,0,0,0
239,0,0,12.95,188.46,19.99,0,0,0,0
240,0,0,12.94,188.23,20.43,0,0,0,0
241,0,0,12.93,187.97,20.86,0,0,0,0
242,0,0,12.87,187.68,21.29,0,0,0,0
243,0,0,12.82,187.36,21.70,0,0,0,0
244,0,0,12.81,187.02,22.11,0,0,0,0
245,0,0,12.87,186.65,22.51,0,0,0,0
246,0,0,12.86,186.26,22.90,0,0,0,0
247,0,0,12.83,185.84,23.28,0,0,0,0
248,0,0,12.79,185.39,23.66,0,0,0,0
249,0,0,12.71,184.92,24.03,0,0,0,0
250,0,0,12.68,184.43,24.40,0,0,0,0
251,0,0,12.67,183.91,24.76,0,0,0,0
252,0,0,12.61,183.36,25.12,0,0,0,0
253,0,0,12.56,182.79,25.48,0,0,0,0
254,0,0,12.50,182.19,25.83,0,0,0,0
255,0,0,12.45,181.57,26.18,0,0,0,0
256,0,0,12.43,180.92,26.53,0,0,0,0
257,0,0,12.37,180.26,26.88,0,0,0,0
258,0,0,12.31,179.56,27.23,0,0,0,0
259,0,0,12.30,178.85,27.58,0,0,0,0
260,0,0,12.34,178.10,27.92,0,0,0,0
261,0,0,12.18,177.34,28.27,0,0,0,0
262,0,0,12.06,176.55,28.62,0,0,0,0
263,0,0,12.04,175.74,28.97,0,0,0,0
264,0,0,11.89,174.91,29.33,0,0,0,0
265,0,0,11.82,174.05,29.69,0,0,0,0
266,0,0,11.86,173.17,30.05,0,0,0,0
267,0,0,11.60,172.27,30.42,0,0,0,0
268,0,0,11.56,171.35,30.79,0,0,0,0
269,0,0,11.63,170.40,31.16,0,0,0,0
270,0,0,11.58,169.43,31.54,0,0,0,0
271,0,0,11.41,168.44,31.93,0,0,0,0
272,0,0,14.85,167.43,32.33,0,0,0,0
273,0,0,16.13,166.40,32.73,0,0,0,0
274,0,0,17.77,165.34,33.14,0,0,0,0
275,0,0,17.88,164.27,33.56,0,0,0,0
276,0,0,15.57,163.17,33.99,0,0,0,0
277,0,0,10.90,162.05,34.43,0,0,0,0
278,0,0,17.12,160.92,34.88,0,0,0,0
279,0,0,15.19,159.76,35.34,0,0,0,0
280,0,0,13.88,158.58,35.81,0,0,0,0
281,0,0,14.86,157.38,36.29,0,0,0,0
282,0,0,14.15,156.16,36.79,0,0,0,0
283,0,0,10.27,154.93,37.30,0,0,0,0
284,0,0,10.12,153.67,37.82,0,0,0,0
285,0,0,9.96,152.39,38.36,0,0,0,0
286,0,0,9.83,151.10,38.91,0,0,0,0
287,0,0,9.70,149.78,39.47,0,0,0,0
288,0,0,9.54,148.45,40.05,0,0,0,0
289,0,0,9.45,147.09,40.65,0,0,0,0
290,0,0,9.29,145.72,41.27,0,0,0,0
291,0,0,9.22,144.33,41.90,0,0,0,0
292,0,0,9.10,142.92,42.55,0,0,0,0
293,0,0,8.79,141.50,43.22,0,0,0,0
294,0,0,8.68,140.05,43.90,0,0,0,0
295,0,0,8.79,138.59,44.61,0,0,0,0
296,0,0,8.72,137.11,45.34,0,0,0,0
297,0,0,8.59,135.62,46.09,0,0,0,0
298,0,0,8.57,134.10,46.86,0,0,0,0
299,0,0,2.03,65.06,68.47,0,0,0,0
300,0,0,2.20,65.27,69.50,0,0,0,0
301,0,0,2.63,65.60,70.41,0,0,0,0
302,0,0,3.10,66.05,71.21,0,0,0,0
303,0,0,3.07,66.62,71.91,0,0,0,0
304,0,0,3.13,67.29,72.51,0,0,0,0
305,0,0,3.17,68.06,73.02,0,0,0,0
306,0,0,3.24,68.93,73.43,0,0,0,0
307,0,0,3.31,69.89,73.76,0,0,0,0
308,0,0,3.47,70.93,74.01,0,0,0,0
309,0,0,3.62,72.03,74.18,0,0,0,0
310,0,0,3.35,73.21,74.28,0,0,0,0
311,0,0,3.21,74.44,74.31,0,0,0,0
312,0,0,3.16,75.73,74.27,0,0,0,0
313,0,0,3.33,77.06,74.18,0,0,0,0
314,0,0,3.37,78.43,74.04,0,0,0,0
315,0,0,3.43,79.83,73.84,0,0,0,0
316,0,0,3.91,81.26,73.60,0,0,0,0
317,0,0,3.43,82.70,73.32,0,0,0,0
318,0,0,14.49,201.06,21.60,0,0,0,0
319,0,0,14.56,205.25,16.79,0,0,0,0
320,0,0,14.19,207.44,12.70,0,0,0,0
321,0,0,14.36,207.93,9.34,0,0,0,0
322,0,0,15.21,207.05,6.78,0,0,0,0
323,0,0,15.26,205.12,5.03,0,0,0,0
324,0,0,14.33,202.46,4.14,0,0,0,0
325,0,0,13.89,199.37,4.16,0,0,0,0
326,0,0,13.25,196.19,5.11,0,0,0,0
327,0,0,13.76,193.23,7.04,0,0,0,0
328,0,0,12.84,190.81,9.98,0,0,0,0
329,0,0,12.77,189.24,13.98,0,0,0,0
330,0,0,12.92,188.85,19.07,0,0,0,0
331,0,0,2.57,57.61,-37.91,0,0,0,0
332,0,0,1.68,57.65,-37.25,0,0,0,0
333,0,0,1.19,57.68,-36.57,0,0,0,0
334,0,0,1.33,57.72,-35.87,0,0,0,0
335,0,0,1.13,57.76,-35.14,0,0,0,0
336,0,0,1.01,57.80,-34.40,0,0,0,0
337,0,0,1.05,57.85,-33.64,0,0,0,0
338,0,0,1.05,57.89,-32.85,0,0,0,0
339,0,0,6.23,57.94,-32.05,0,0,0,0
340,0,0,4.30,57.99,-31.23,0,0,0,0
341,0,0,1.81,58.04,-30.40,0,0,0,0
342,0,0,2.03,58.10,-29.54,0,0,0,0
343,0,0,2.48,58.15,-28.67,0,0,0,0
344,0,0,2.49,58.21,-27.78,0,0,0,0
345,0,0,2.53,58.27,-26.88,0,0,0,0
346,0,0,2.45,58.33,-25.96,0,0,0,0
347,0,0,2.22,58.39,-25.02,0,0,0,0
348,0,0,2.23,58.45,-24.07,0,0,0,0
349,0,0,2.19,58.52,-23.11,0,0,0,0
350,0,0,2.35,58.58,-22.13,0,0,0,0
351,0,0,1.57,58.65,-21.14,0,0,0,0
352,0,0,1.52,58.72,-20.13,0,0,0,0
353,0,0,2.53,58.79,-19.11,0,0,0,0
354,0,0,2.69,58.86,-18.08,0,0,0,0
355,0,0,2.75,58.93,-17.04,0,0,0,0
356,0,0,2.78,59.00,-15.99,0,0,0,0
357,0,0,2.83,59.08,-14.92,0,0,0,0
358,0,0,2.89,59.16,-13.85,0,0,0,0
359,0,0,2.84,59.23,-12.76,0,0,0,0
360,0,0,2.92,59.31,-11.67,0,0,0,0
361,0,0,2.94,59.39,-10.56,0,0,0,0
362,0,0,2.87,59.47,-9.45,0,0,0,0
363,0,0,2.90,59.55,-8.32,0,0,0,0
364,0,0,2.92,59.63,-7.19,0,0,0,0
365,0,0,2.97,59.71,-6.06,0,0,0,0
366,0,0,2.97,59.79,-4.91,0,0,0,0
367,0,0,3.04,59.88,-3.76,0,0,0,0
368,0,0,3.09,59.96,-2.60,0,0,0,0
369,0,0,2.58,60.05,-1.44,0,0,0,0
370,0,0,2.89,60.13,-0.27,0,0,0,0
371,0,0,3.25,60.22,0.91,0,0,0,0
372,0,0,3.18,60.30,2.09,0,0,0,0
373,0,0,3.09,60.39,3.27,0,0,0,0
374,0,0,3.22,60.48,4.46,0,0,0,0
375,0,0,2.12,60.57,5.65,0,0,0,0
376,0,0,2.88,60.65,6.85,0,0,0,0
377,0,0,3.37,60.74,8.04,0,0,0,0
378,0,0,2.94,60.83,9.24,0,0,0,0
379,0,0,3.35,60.92,10.44,0,0,0,0
380,0,0,3.29,61.01,11.64,0,0,0,0
381,0,0,3.38,61.10,12.85,0,0,0,0
382,0,0,3.52,61.19,14.05,0,0,0,0
383,0,0,3.39,61.28,15.25,0,0,0,0
384,0,0,3.48,61.37,16.46,0,0,0,0
385,0,0,3.46,61.46,17.66,0,0,0,0
386,0,0,3.51,61.55,18.86,0,0,0,0
387,0,0,3.56,61.63,20.06,0,0,0,0
388,0,0,3.46,61.72,21.25,0,0,0,0
389,0,0,3.45,61.81,22.45,0,0,0,0
390,0,0,3.32,61.90,23.64,0,0,0,0
391,0,0,3.46,61.99,24.83,0,0,0,0
392,0,0,3.36,62.08,26.01,0,0,0,0
393,0,0,3.36,62.17,27.19,0,0,0,0
394,0,0,3.29,62.25,28.37,0,0,0,0
395,0,0,3.19,62.34,29.54,0,0,0,0
396,0,0,2.83,62.43,30.70,0,0,0,0
397,0,0,2.41,62.51,31.86,0,0,0,0
398,0,0,2.64,62.60,33.01,0,0,0,0
399,0,0,2.72,62.68,34.16,0,0,0,0
400,0,0,2.81,62.77,35.30,0,0,0,0
401,0,0,3.01,62.85,36.43,0,0,0,0
402,0,0,3.13,62.93,37.55,0,0,0,0
403,0,0,3.20,63.01,38.67,0,0,0,0
404,0,0,3.16,63.10,39.77,0,0,0,0
405,0,0,3.15,63.18,40.87,0,0,0,0
406,0,0,5.05,63.26,41.95,0,0,0,0
407,0,0,3.53,63.33,43.03,0,0,0,0
408,0,0,3.94,63.41,44.09,0,0,0,0
409,0,0,3.52,63.49,45.15,0,0,0,0
410,0,0,5.08,63.56,46.19,0,0,0,0
411,0,0,4.41,63.64,47.22,0,0,0,0
412,0,0,5.21,63.71,48.24,0,0,0,0
413,0,0,5.44,63.78,49.25,0,0,0,0
414,0,0,5.55,63.86,50.24,0,0,0,0
415,0,0,5.00,63.93,51.22,0,0,0,0
416,0,0,1.65,63.99,52.19,0,0,0,0
417,0,0,2.18,64.06,53.14,0,0,0,0
418,0,0,2.25,64.13,54.07,0,0,0,0
419,0,0,2.57,64.19,54.99,0,0,0,0
420,0,0,2.55,64.25,55.90,0,0,0,0
421,0,0,2.58,64.32,56.79,0,0,0,0
422,0,0,2.16,64.38,57.66,0,0,0,0
423,0,0,2.15,64.43,58.52,0,0,0,0
424,0,0,2.52,64.49,59.35,0,0,0,0
425,0,0,2.54,64.55,60.17,0,0,0,0
426,0,0,1.85,64.60,60.98,0,0,0,0
427,0,0,1.86,64.65,61.76,0,0,0,0
428,0,0,2.04,64.70,62.52,0,0,0,0
429,0,0,2.33,64.75,63.27,0,0,0,0
430,0,0,2.73,64.79,63.99,0,0,0,0
431,0,0,3.00,64.84,64.70,0,0,0,0
432,0,0,2.62,64.88,65.38,0,0,0,0
433,0,0,1.80,64.92,66.04,0,0,0,0
434,0,0,2.23,64.96,66.68,0,0,0,0
435,0,0,2.22,65.00,67.30,0,0,0,0
436,0,0,1.95,65.03,67.90,0,0,0,0
437,0,0,2.03,65.06,68.47,0,0,0,0
438,0,0,0.84,-0.93,6.96,0,0,0,0
439,0,0,0.01,-0.71,9.19,0,0,0,0
440,0,0,0.12,-0.97,11.16,0,0,0,0
441,0,0,0.17,-1.66,12.85,0,0,0,0
442,0,0,0.31,-2.71,14.27,0,0,0,0
443,0,0,0.46,-4.07,15.42,0,0,0,0
444,0,0,0.10,-5.67,16.29,0,0,0,0
445,0,0,0.00,-7.44,16.89,0,0,0,0
446,0,0,0.00,-9.33,17.20,0,0,0,0
447,0,0,0.16,-11.27,17.22,0,0,0,0
448,0,0,0.40,-13.21,16.97,0,0,0,0
449,0,0,0.54,-15.08,16.42,0,0,0,0
450,0,0,0.55,-16.81,15.58,0,0,0,0
451,0,0,0.63,-18.35,14.46,0,0,0,0
452,0,0,0.73,-19.64,13.04,0,0,0,0
453,0,0,0.72,-20.61,11.32,0,0,0,0
454,0,0,0.61,-21.19,9.30,0,0,0,0
455,0,0,0.52,-21.34,6.99,0,0,0,0
456,0,0,0.39,-20.99,4.37,0,0,0,0
457,0,0,0.38,-20.07,1.45,0,0,0,0
458,0,0,0.82,-15.15,8.24,0,0,0,0
459,0,0,0.76,-14.75,9.94,0,0,0,0
460,0,0,0.72,-13.71,11.20,0,0,0,0
461,0,0,0.79,-12.23,12.02,0,0,0,0
462,0,0,0.36,-10.51,12.37,0,0,0,0
463,0,0,0.75,-8.78,12.25,0,0,0,0
464,0,0,0.30,-7.25,11.63,0,0,0,0
465,0,0,0.21,-6.12,10.51,0,0,0,0
466,0,0,0.34,-5.61,8.86,0,0,0,0
467,0,0,0.43,-5.92,6.69,0,0,0,0
468,0,0,0.82,-15.15,8.24,0,0,0,0
469,0,0,0.75,-15.54,6.35,0,0,0,0
470,0,0,1.74,-15.05,4.80,0,0,0,0
471,0,0,2.19,-13.91,3.63,0,0,0,0
472,0,0,2.33,-12.34,2.88,0,0,0,0
473,0,0,1.06,-10.57,2.58,0,0,0,0
474,0,0,2.45,-8.81,2.78,0,0,0,0
475,0,0,3.74,-7.30,3.50,0,0,0,0
476,0,0,0.89,-6.27,4.79,0,0,0,0
477,0,0,0.43,-5.92,6.69,0,0,0,0
478,0,0,1.27,-25.97,24.24,0,0,0,0
479,0,0,0.86,-26.84,24.12,0,0,0,0
480,0,0,0.89,-27.68,23.78,0,0,0,0
481,0,0,1.32,-28.47,23.24,0,0,0,0
482,0,0,1.58,-29.22,22.52,0,0,0,0
483,0,0,1.56,-29.92,21.66,0,0,0,0
484,0,0,1.59,-30.57,20.66,0,0,0,0
485,0,0,1.59,-31.17,19.56,0,0,0,0
486,0,0,1.57,-31.72,18.39,0,0,0,0
487,0,0,1.58,-32.22,17.16,0,0,0,0
488,0,0,1.61,-32.66,15.90,0,0,0,0
489,0,0,1.60,-33.05,14.63,0,0,0,0
490,0,0,1.63,-33.39,13.38,0,0,0,0
491,0,0,1.66,-33.66,12.17,0,0,0,0
492,0,0,1.67,-33.88,11.03,0,0,0,0
493,0,0,1.57,-34.04,9.98,0,0,0,0
494,0,0,0.54,-34.13,9.04,0,0,0,0
495,0,0,0.87,-34.16,8.24,0,0,0,0
496,0,0,0.00,-22.81,-8.64,0,0,0,0
497,0,0,0.00,-22.46,-8.98,0,0,0,0
498,0,0,0.00,-22.08,-9.36,0,0,0,0
499,0,0,0.00,-21.65,-9.79,0,0,0,0
500,0,0,0.61,-21.18,-10.25,0,0,0,0
501,0,0,0.00,-20.68,-10.76,0,0,0,0
502,0,0,0.00,-20.15,-11.30,0,0,0,0
503,0,0,0.00,-19.58,-11.87,0,0,0,0
504,0,0,0.00,-18.98,-12.48,0,0,0,0
505,0,0,0.00,-18.35,-13.12,0,0,0,0
506,0,0,0.52,-17.69,-13.78,0,0,0,0
507,0,0,0.89,-17.01,-14.47,0,0,0,0
508,0,0,0.00,-16.31,-15.19,0,0,0,0
509,0,0,0.08,-15.59,-15.93,0,0,0,0
510,0,0,0.25,-14.85,-16.69,0,0,0,0
511,0,0,0.39,-14.09,-17.47,0,0,0,0
512,0,0,0.87,-13.32,-18.27,0,0,0,0
513,0,0,0.83,-12.53,-19.08,0,0,0,0
514,0,0,0.94,-11.74,-19.91,0,0,0,0
515,0,0,0.82,-10.93,-20.75,0,0,0,0
516,0,0,1.63,-10.12,-21.60,0,0,0,0
517,0,0,0.19,-9.30,-22.45,0,0,0,0
518,0,0,0.15,-8.49,-23.31,0,0,0,0
519,0,0,1.55,-7.67,-24.18,0,0,0,0
520,0,0,1.11,-6.85,-25.04,0,0,0,0
521,0,0,0.29,-6.03,-25.91,0,0,0,0
522,0,0,0.13,-5.23,-26.77,0,0,0,0
523,0,0,0.65,-4.42,-27.63,0,0,0,0
524,0,0,2.48,-3.63,-28.49,0,0,0,0
525,0,0,1.14,-2.85,-29.34,0,0,0,0
526,0,0,0.00,-2.08,-30.17,0,0,0,0
527,0,0,0.00,-1.33,-31.00,0,0,0,0
528,0,0,0.12,-0.60,-31.81,0,0,0,0
529,0,0,0.00,0.12,-32.61,0,0,0,0
530,0,0,0.00,0.81,-33.39,0,0,0,0
531,0,0,0.00,0.81,-33.39,0,0,0,0
532,0,0,0.02,1.21,-33.77,0,0,0,0
533,0,0,0.11,1.63,-34.17,0,0,0,0
534,0,0,1.11,2.06,-34.59,0,0,0,0
535,0,0,1.63,2.50,-35.04,0,0,0,0
536,0,0,1.07,2.96,-35.50,0,0,0,0
537,0,0,0.00,3.44,-35.98,0,0,0,0
538,0,0,0.00,3.93,-36.48,0,0,0,0
539,0,0,0.00,4.44,-37.00,0,0,0,0
540,0,0,0.00,4.96,-37.54,0,0,0,0
541,0,0,0.00,5.50,-38.10,0,0,0,0
542,0,0,0.00,6.06,-38.68,0,0,0,0
543,0,0,0.00,6.64,-39.28,0,0,0,0
544,0,0,0.64,7.23,-39.89,0,0,0,0
545,0,0,0.06,7.84,-40.52,0,0,0,0
546,0,0,0.00,8.47,-41.16,0,0,0,0
547,0,0,0.51,9.12,-41.83,0,0,0,0
548,0,0,0.00,9.78,-42.51,0,0,0,0
549,0,0,0.00,10.47,-43.20,0,0,0,0
550,0,0,4.08,11.17,-43.91,0,0,0,0
551,0,0,2.64,11.89,-44.64,0,0,0,0
552,0,0,1.79,12.63,-45.38,0,0,0,0
553,0,0,1.78,13.39,-46.13,0,0,0,0
554,0,0,1.36,14.17,-46.90,0,0,0,0
555,0,0,1.46,14.97,-47.68,0,0,0,0
556,0,0,1.60,15.79,-48.48,0,0,0,0
557,0,0,0.92,16.63,-49.29,0,0,0,0
558,0,0,1.51,17.50,-50.11,0,0,0,0
559,0,0,1.24,18.38,-50.94,0,0,0,0
560,0,0,1.64,19.28,-51.79,0,0,0,0
561,0,0,1.83,20.21,-52.65,0,0,0,0
562,0,0,1.84,21.15,-53.51,0,0,0,0
563,0,0,2.02,22.12,-54.39,0,0,0,0
564,0,0,2.03,23.11,-55.28,0,0,0,0
565,0,0,1.81,24.13,-56.18,0,0,0,0
566,0,0,0.66,25.16,-57.10,0,0,0,0
567,0,0,1.75,26.22,-58.02,0,0,0,0
568,0,0,0.95,27.30,-58.94,0,0,0,0
569,0,0,1.15,28.41,-59.88,0,0,0,0
570,0,0,1.39,29.53,-60.83,0,0,0,0
571,0,0,1.39,29.53,-60.83,0,0,0,0
572,0,0,1.61,30.62,-61.59,0,0,0,0
573,0,0,1.59,31.69,-62.25,0,0,0,0
574,0,0,1.59,32.76,-62.82,0,0,0,0
575,0,0,1.55,33.82,-63.30,0,0,0,0
576,0,0,1.61,34.87,-63.70,0,0,0,0
577,0,0,1.53,35.91,-64.02,0,0,0,0
578,0,0,1.69,36.95,-64.27,0,0,0,0
579,0,0,1.62,37.98,-64.44,0,0,0,0
580,0,0,1.66,39.00,-64.55,0,0,0,0
581,0,0,1.73,40.01,-64.60,0,0,0,0
582,0,0,0.99,41.02,-64.59,0,0,0,0
583,0,0,0.69,42.02,-64.53,0,0,0,0
584,0,0,1.45,43.02,-64.42,0,0,0,0
585,0,0,1.12,44.01,-64.27,0,0,0,0
586,0,0,1.30,44.99,-64.08,0,0,0,0
587,0,0,1.00,45.97,-63.85,0,0,0,0
588,0,0,1.12,46.94,-63.59,0,0,0,0
589,0,0,2.12,47.90,-63.31,0,0,0,0
590,0,0,1.98,48.86,-63.01,0,0,0,0
591,0,0,1.77,49.82,-62.69,0,0,0,0
592,0,0,2.09,50.77,-62.36,0,0,0,0
593,0,0,2.09,51.71,-62.02,0,0,0,0
594,0,0,1.80,52.65,-61.67,0,0,0,0
595,0,0,1.95,53.59,-61.33,0,0,0,0
596,0,0,0.30,3.37,18.15,0,0,0,0
597,0,0,0.49,2.03,19.24,0,0,0,0
598,0,0,0.64,0.75,20.20,0,0,0,0
599,0,0,0.82,-0.47,21.04,0,0,0,0
600,0,0,0.85,-1.63,21.76,0,0,0,0
601,0,0,0.74,-2.74,22.39,0,0,0,0
602,0,0,0.51,-3.80,22.91,0,0,0,0
603,0,0,0.52,-4.81,23.35,0,0,0,0
604,0,0,0.43,-5.78,23.71,0,0,0,0
605,0,0,0.38,-6.70,23.99,0,0,0,0
606,0,0,0.28,-7.59,24.20,0,0,0,0
607,0,0,0.18,-8.43,24.36,0,0,0,0
608,0,0,0.22,-9.24,24.47,0,0,0,0
609,0,0,0.35,-10.01,24.53,0,0,0,0
610,0,0,0.44,-10.75,24.56,0,0,0,0
611,0,0,0.70,-11.47,24.56,0,0,0,0
612,0,0,0.71,-12.15,24.53,0,0,0,0
613,0,0,0.70,-12.81,24.50,0,0,0,0
614,0,0,1.03,3.27,-22.98,0,0,0,0
615,0,0,1.70,3.66,-23.34,0,0,0,0
616,0,0,1.55,4.10,-23.75,0,0,0,0
617,0,0,1.74,4.60,-24.22,0,0,0,0
618,0,0,1.49,5.15,-24.74,0,0,0,0
619,0,0,0.91,5.74,-25.30,0,0,0,0
620,0,0,1.67,6.37,-25.91,0,0,0,0
621,0,0,1.72,7.05,-26.56,0,0,0,0
622,0,0,1.73,7.76,-27.25,0,0,0,0
623,0,0,1.77,8.51,-27.97,0,0,0,0
624,0,0,1.25,9.29,-28.72,0,0,0,0
625,0,0,1.70,10.10,-29.50,0,0,0,0
626,0,0,1.44,10.93,-30.30,0,0,0,0
627,0,0,0.00,11.79,-31.13,0,0,0,0
628,0,0,0.00,12.66,-31.97,0,0,0,0
629,0,0,0.11,13.55,-32.82,0,0,0,0
630,0,0,0.46,14.46,-33.68,0,0,0,0
631,0,0,1.08,15.37,-34.55,0,0,0,0
632,0,0,1.34,16.30,-35.42,0,0,0,0
633,0,0,1.53,17.22,-36.30,0,0,0,0
634,0,0,1.56,18.15,-37.17,0,0,0,0
635,0,0,1.58,19.08,-38.03,0,0,0,0
636,0,0,1.59,20.00,-38.88,0,0,0,0
637,0,0,1.62,20.92,-39.72,0,0,0,0
638,0,0,1.56,21.83,-40.55,0,0,0,0
639,0,0,1.62,22.72,-41.35,0,0,0,0
640,0,0,1.66,23.60,-42.13,0,0,0,0
641,0,0,1.63,24.45,-42.88,0,0,0,0
642,0,0,1.36,25.29,-43.60,0,0,0,0
643,0,0,1.77,26.10,-44.29,0,0,0,0
644,0,0,1.81,26.88,-44.94,0,0,0,0
645,0,0,1.89,27.63,-45.55,0,0,0,0
646,0,0,2.10,28.35,-46.12,0,0,0,0
647,0,0,2.08,29.02,-46.63,0,0,0,0
648,0,0,2.33,29.66,-47.10,0,0,0,0
649,0,0,2.30,30.26,-47.52,0,0,0,0
650,0,0,2.11,30.81,-47.87,0,0,0,0
651,0,0,2.63,31.31,-48.17,0,0,0,0
652,0,0,4.01,31.76,-48.40,0,0,0,0
653,0,0,1.03,3.27,-22.98,0,0,0,0
654,0,0,1.03,3.03,-21.71,0,0,0,0
655,0,0,1.49,3.21,-20.31,0,0,0,0
656,0,0,0.75,3.58,-19.18,0,0,0,0
657,0,0,1.05,3.87,-18.72,0,0,0,0
658,0,0,4.01,31.76,-48.40,0,0,0,0
659,0,0,1.59,33.43,-49.18,0,0,0,0
660,0,0,1.21,35.05,-49.79,0,0,0,0
661,0,0,0.78,36.62,-50.23,0,0,0,0
662,0,0,0.85,38.12,-50.52,0,0,0,0
663,0,0,1.04,39.57,-50.67,0,0,0,0
664,0,0,1.06,40.96,-50.68,0,0,0,0
665,0,0,1.12,42.29,-50.56,0,0,0,0
666,0,0,1.21,43.56,-50.33,0,0,0,0
667,0,0,1.23,44.77,-49.99,0,0,0,0
668,0,0,1.26,45.92,-49.56,0,0,0,0
669,0,0,1.62,47.01,-49.04,0,0,0,0
670,0,0,1.49,48.03,-48.44,0,0,0,0
671,0,0,1.58,49.00,-47.77,0,0,0,0
672,0,0,1.45,49.89,-47.04,0,0,0,0
673,0,0,1.38,50.73,-46.27,0,0,0,0
674,0,0,1.39,51.50,-45.45,0,0,0,0
675,0,0,1.39,52.20,-44.61,0,0,0,0
676,0,0,1.36,52.83,-43.74,0,0,0,0
677,0,0,2.54,53.40,-42.86,0,0,0,0
678,0,0,1.33,53.90,-41.98,0,0,0,0
679,0,0,1.35,54.34,-41.11,0,0,0,0
680,0,0,1.71,54.70,-40.26,0,0,0,0
681,0,0,2.43,54.99,-39.43,0,0,0,0
682,0,0,1.94,55.22,-38.64,0,0,0,0
683,0,0,1.66,55.37,-37.89,0,0,0,0
684,0,0,4.88,55.45,-37.21,0,0,0,0
